…
  ## rm ica2
  rm(ica_old)

  ## filter unique data
  ica <- funique::funique(ica)
}

## save data set
saveRDS(ica, file.path("data", "ica18.rds"))

## view data
ica
#> # A tibble: 5,104 x 87
#>    user_id  status_id created_at          screen_name text          source
#>    <chr>    <chr>     <dttm>              <chr>       <chr>         <chr> 
#>  1 1966973… 99995054… 2018-05-25 09:49:23 roeclark    RT @ICA_FSD:… Twitt…
#>  2 60163986 99995047… 2018-05-25 09:49:05 Noteworthy… RT @Hermida:… AmysT…
#>  3 1966973… 99995040… 2018-05-25 09:48:49 roeclark    RT @Annenber… Twitt…
#>  4 1966973… 99995036… 2018-05-25 09:48:40 roeclark    RT @srajabi:… Twitt…
#>  5 1966973… 99995035… 2018-05-25 09:48:36 roeclark    RT @srajabi:… Twitt…
#>  6 6074806… 99995042… 2018-05-25 09:48:54 lutzid      RT @laripley… Twitt…
#>  7 2213705… 99995029… 2018-05-25 09:48:22 bencekolla… @katypearce … Twitt…
#>  8 24577179 99995034… 2018-05-25 09:48:35 asivunen    "\"Legal (go… Twitt…
#>  9 1966973… 99995021… 2018-05-25 09:48:03 roeclark    RT @AcsjIca:… Twitt…
#> 10 2811394… 99995017… 2018-05-25 09:47:53 muira_mcca… RT @shrapnel… Twitt…
#> # ... with 5,094 more rows, and 81 more variables:
#> #   display_text_width <dbl>, reply_to_status_id <chr>,
#> #   reply_to_user_id <chr>, reply_to_screen_name <chr>, is_quote <lgl>,
#> #   is_retweet <lgl>, favorite_count <int>, retweet_count <int>,
#> #   hashtags <list>, symbols <list>, urls_url <list>, urls_t.co <list>,
#> #   urls_expanded_url <list>, media_url <list>, media_t.co <list>,
#> #   media_expanded_url <list>, media_type <list>, ext_media_url <list>,
#> #   ext_media_t.co <list>, ext_media_expanded_url <list>,
#> #   ext_media_type <chr>, mentions_user_id <list>,
…
